…
``` r
library(readxl)
library(dplyr)
```

``` r
subway_df = read_csv("data/NYC_Transit_Subway_Entrance_And_Exit_Data.csv",
                     col_types = cols(Route8 = "c", Route9 = "c", Route10 = "c", Route11 = "c")) %>%
  janitor::clean_names() %>% 
  select(line:route11, entry:vending, ada, entrance_type) %>% 
  mutate(entry = ifelse(entry == "YES", TRUE, FALSE))
subway_df
```

    ## # A tibble: 1,868 × 20
    ##    line     station_…¹ stati…² stati…³ route1 route2 route3 route4 route5 route6
    ##    <chr>    <chr>        <dbl>   <dbl> <chr>  <chr>  <chr>  <chr>  <chr>  <chr> 
    ##  1 4 Avenue 25th St       40.7   -74.0 R      <NA>   <NA>   <NA>   <NA>   <NA>  
    ##  2 4 Avenue 25th St       40.7   -74.0 R      <NA>   <NA>   <NA>   <NA>   <NA>  
    ##  3 4 Avenue 36th St       40.7   -74.0 N      R      <NA>   <NA>   <NA>   <NA>  
    ##  4 4 Avenue 36th St       40.7   -74.0 N      R      <NA>   <NA>   <NA>   <NA>  
    ##  5 4 Avenue 36th St       40.7   -74.0 N      R      <NA>   <NA>   <NA>   <NA>  
    ##  6 4 Avenue 45th St       40.6   -74.0 R      <NA>   <NA>   <NA>   <NA>   <NA>  
    ##  7 4 Avenue 45th St       40.6   -74.0 R      <NA>   <NA>   <NA>   <NA>   <NA>  
    ##  8 4 Avenue 45th St       40.6   -74.0 R      <NA>   <NA>   <NA>   <NA>   <NA>  
    ##  9 4 Avenue 45th St       40.6   -74.0 R      <NA>   <NA>   <NA>   <NA>   <NA>  
    ## 10 4 Avenue 53rd St       40.6   -74.0 R      <NA>   <NA>   <NA>   <NA>   <NA>  
    ## # … with 1,858 more rows, 10 more variables: route7 <chr>, route8 <chr>,
    ## #   route9 <chr>, route10 <chr>, route11 <chr>, entry <lgl>, exit_only <chr>,
    ## #   vending <chr>, ada <lgl>, entrance_type <chr>, and abbreviated variable
    ## #   names ¹​station_name, ²​station_latitude, ³​station_longitude

``` r
subway_df %>% 
  select(station_name, line) %>% 
  distinct
```

    ## # A tibble: 465 × 2
    ##    station_name             line    
    ##    <chr>                    <chr>   
    ##  1 25th St                  4 Avenue
    ##  2 36th St                  4 Avenue
    ##  3 45th St                  4 Avenue
    ##  4 53rd St                  4 Avenue
    ##  5 59th St                  4 Avenue
    ##  6 77th St                  4 Avenue
    ##  7 86th St                  4 Avenue
    ##  8 95th St                  4 Avenue
    ##  9 9th St                   4 Avenue
    ## 10 Atlantic Av-Barclays Ctr 4 Avenue
    ## # … with 455 more rows

``` r
subway_df %>% 
  filter(ada == TRUE) %>% 
  select(station_name, line) %>% 
  distinct
```

    ## # A tibble: 84 × 2
    ##    station_name                   line           
    ##    <chr>                          <chr>          
    ##  1 Atlantic Av-Barclays Ctr       4 Avenue       
    ##  2 DeKalb Av                      4 Avenue       
    ##  3 Pacific St                     4 Avenue       
    ##  4 Grand Central                  42nd St Shuttle
    ##  5 34th St                        6 Avenue       
    ##  6 47-50th Sts Rockefeller Center 6 Avenue       
    ##  7 Church Av                      6 Avenue       
    ##  8 21st St                        63rd Street    
    ##  9 Lexington Av                   63rd Street    
    ## 10 Roosevelt Island               63rd Street    
    ## # … with 74 more rows

``` r
subway_df %>% 
  pivot_longer(
    route1:route11,
    names_to = "routenum",
    values_to = "route") %>% 
  filter(route == "A") %>% 
  select (line, station_name) %>% 
  distinct
```

    ## # A tibble: 60 × 2
    ##    line            station_name                 
    ##    <chr>           <chr>                        
    ##  1 42nd St Shuttle Times Square                 
    ##  2 8 Avenue        125th St                     
    ##  3 8 Avenue        145th St                     
    ##  4 8 Avenue        14th St                      
    ##  5 8 Avenue        168th St - Washington Heights
    ##  6 8 Avenue        175th St                     
    ##  7 8 Avenue        181st St                     
    ##  8 8 Avenue        190th St                     
    ##  9 8 Avenue        34th St                      
    ## 10 8 Avenue        42nd St                      
    ## # … with 50 more rows
…
    ## New names:
    ## • `` -> `...15`
    ## • `` -> `...16`

``` r
mr_trash_df
```

    ## # A tibble: 486 × 15
    ##    id    dumps…¹ month year  date                weigh…² volum…³ plast…⁴ polys…⁵
    ##    <chr>   <dbl> <chr> <chr> <dttm>                <int>   <dbl>   <dbl>   <dbl>
    ##  1 Mr.T…       1 May   2014  2014-05-16 00:00:00       4      18    1450    1820
    ##  2 Mr.T…       2 May   2014  2014-05-16 00:00:00       3      13    1120    1030
    ##  3 Mr.T…       3 May   2014  2014-05-16 00:00:00       3      15    2450    3100
    ##  4 Mr.T…       4 May   2014  2014-05-17 00:00:00       3      15    2380    2730
    ##  5 Mr.T…       5 May   2014  2014-05-17 00:00:00       4      18     980     870
    ##  6 Mr.T…       6 May   2014  2014-05-20 00:00:00       3      13    1430    2140
    ##  7 Mr.T…       7 May   2014  2014-05-21 00:00:00       2       8     910    1090
    ##  8 Mr.T…       8 May   2014  2014-05-28 00:00:00       4      16    3580    4310
    ##  9 Mr.T…       9 June  2014  2014-06-05 00:00:00       3      14    2400    2790
    ## 10 Mr.T…      10 June  2014  2014-06-11 00:00:00       4      18    1340    1730
    ## # … with 476 more rows, 6 more variables: cigarette_butts <dbl>,
    ## #   glass_bottles <dbl>, grocery_bags <dbl>, chip_bags <dbl>,
    ## #   sports_balls <dbl>, homes_powered <dbl>, and abbreviated variable names
    ## #   ¹​dumpster, ²​weight_tons, ³​volume_cubic_yards, ⁴​plastic_bottles,
    ## #   ⁵​polystyrene

``` r
prof_trash_df =  read_excel("data/Trash Wheel Collection Data.xlsx", sheet = 2) %>% 
  janitor::clean_names() %>% 
  select(dumpster:homes_powered) %>% 
  drop_na() %>% 
  mutate(year = as.character(year)) %>% 
  mutate(weight_tons = round(weight_tons, digit = 0)) %>% 
  mutate(weight_tons = as.integer(weight_tons)) %>% 
  mutate(id = "Professor Trash Wheel") %>% 
  select(id, dumpster:homes_powered)
prof_trash_df
```

    ## # A tibble: 82 × 14
    ##    id    dumps…¹ month year  date                weigh…² volum…³ plast…⁴ polys…⁵
    ##    <chr>   <dbl> <chr> <chr> <dttm>                <int>   <dbl>   <dbl>   <dbl>
    ##  1 Prof…       1 Janu… 2017  2017-01-02 00:00:00       2      15    1950    6080
    ##  2 Prof…       2 Janu… 2017  2017-01-30 00:00:00       2      15    9540   11230
    ##  3 Prof…       3 Febr… 2017  2017-02-26 00:00:00       2      18    8350    9210
    ##  4 Prof…       4 Febr… 2017  2017-02-26 00:00:00       4      15    8590    1030
    ##  5 Prof…       5 Febr… 2017  2017-02-28 00:00:00       1      15    7830    9950
    ##  6 Prof…       6 March 2017  2017-03-30 00:00:00       2      15    8210   10340
    ##  7 Prof…       7 April 2017  2017-04-01 00:00:00       2      15    9830   11020
    ##  8 Prof…       8 April 2017  2017-04-20 00:00:00       2      15    9240    8760
    ##  9 Prof…       9 May   2017  2017-05-10 00:00:00       3      15    9540    8810
    ## 10 Prof…      10 May   2017  2017-05-26 00:00:00       3      15    8230    7800
    ## # … with 72 more rows, 5 more variables: cigarette_butts <dbl>,
    ## #   glass_bottles <dbl>, grocery_bags <dbl>, chip_bags <dbl>,
    ## #   homes_powered <dbl>, and abbreviated variable names ¹​dumpster,
    ## #   ²​weight_tons, ³​volume_cubic_yards, ⁴​plastic_bottles, ⁵​polystyrene
…
``` r
rows = nrow(pols_mon_raw)
odd_rows = seq_len(rows) %% 2
pols_mon = pols_mon_raw[odd_rows == 1, ]
pols_mon
```

    ## # A tibble: 822 × 9
    ##    year  month     president gov_gop sen_gop rep_gop gov_dem sen_dem rep_dem
    ##    <chr> <chr>     <chr>       <dbl>   <dbl>   <dbl>   <dbl>   <dbl>   <dbl>
    ##  1 1947  January   dem            23      51     253      23      45     198
    ##  2 1947  February  dem            23      51     253      23      45     198
    ##  3 1947  March     dem            23      51     253      23      45     198
    ##  4 1947  April     dem            23      51     253      23      45     198
    ##  5 1947  May       dem            23      51     253      23      45     198
    ##  6 1947  June      dem            23      51     253      23      45     198
    ##  7 1947  July      dem            23      51     253      23      45     198
    ##  8 1947  August    dem            23      51     253      23      45     198
    ##  9 1947  September dem            23      51     253      23      45     198
    ## 10 1947  October   dem            23      51     253      23      45     198
    ## # … with 812 more rows
…
    ## Rows: 787 Columns: 2
    ## ── Column specification ────────────────────────────────────────────────────────
    ## Delimiter: ","
    ## chr (1): date
    ## dbl (1): close
    ## 
    ## ℹ Use `spec()` to retrieve the full column specification for this data.
    ## ℹ Specify the column types or set `show_col_types = FALSE` to quiet this message.

``` r
snp
```

    ## # A tibble: 787 × 3
    ##    year  month    close
    ##    <chr> <chr>    <dbl>
    ##  1 2015  July     2080.
    ##  2 2015  June     2063.
    ##  3 2015  May      2107.
    ##  4 2015  April    2086.
    ##  5 2015  March    2068.
    ##  6 2015  February 2104.
    ##  7 2015  January  1995.
    ##  8 2014  December 2059.
    ##  9 2014  November 2068.
    ## 10 2014  October  2018.
    ## # … with 777 more rows
…
    ## Rows: 68 Columns: 13
    ## ── Column specification ────────────────────────────────────────────────────────
    ## Delimiter: ","
    ## dbl (13): Year, Jan, Feb, Mar, Apr, May, Jun, Jul, Aug, Sep, Oct, Nov, Dec
    ## 
    ## ℹ Use `spec()` to retrieve the full column specification for this data.
    ## ℹ Specify the column types or set `show_col_types = FALSE` to quiet this message.

``` r
unemp
```

    ## # A tibble: 816 × 3
    ##    year  month     unemp_perc
    ##    <chr> <chr>          <dbl>
    ##  1 1948  January          3.4
    ##  2 1948  February         3.8
    ##  3 1948  March            4  
    ##  4 1948  April            3.9
    ##  5 1948  May              3.5
    ##  6 1948  June             3.6
    ##  7 1948  July             3.6
    ##  8 1948  August           3.9
    ##  9 1948  September        3.8
    ## 10 1948  October          3.7
    ## # … with 806 more rows

``` r
pols_mon_snp = left_join(pols_mon, snp, by = c("year", "month"))
pols_mon_snp
```

    ## # A tibble: 822 × 10
    ##    year  month     presi…¹ gov_gop sen_gop rep_gop gov_dem sen_dem rep_dem close
    ##    <chr> <chr>     <chr>     <dbl>   <dbl>   <dbl>   <dbl>   <dbl>   <dbl> <dbl>
    ##  1 1947  January   dem          23      51     253      23      45     198    NA
    ##  2 1947  February  dem          23      51     253      23      45     198    NA
    ##  3 1947  March     dem          23      51     253      23      45     198    NA
    ##  4 1947  April     dem          23      51     253      23      45     198    NA
    ##  5 1947  May       dem          23      51     253      23      45     198    NA
    ##  6 1947  June      dem          23      51     253      23      45     198    NA
    ##  7 1947  July      dem          23      51     253      23      45     198    NA
    ##  8 1947  August    dem          23      51     253      23      45     198    NA
    ##  9 1947  September dem          23      51     253      23      45     198    NA
    ## 10 1947  October   dem          23      51     253      23      45     198    NA
    ## # … with 812 more rows, and abbreviated variable name ¹​president

``` r
pols_mon_snp_unemp = left_join(pols_mon_snp, unemp, by = c("year", "month"))
pols_mon_snp_unemp
```

    ## # A tibble: 822 × 11
    ##    year  month     presi…¹ gov_gop sen_gop rep_gop gov_dem sen_dem rep_dem close
    ##    <chr> <chr>     <chr>     <dbl>   <dbl>   <dbl>   <dbl>   <dbl>   <dbl> <dbl>
    ##  1 1947  January   dem          23      51     253      23      45     198    NA
    ##  2 1947  February  dem          23      51     253      23      45     198    NA
    ##  3 1947  March     dem          23      51     253      23      45     198    NA
    ##  4 1947  April     dem          23      51     253      23      45     198    NA
    ##  5 1947  May       dem          23      51     253      23      45     198    NA
    ##  6 1947  June      dem          23      51     253      23      45     198    NA
    ##  7 1947  July      dem          23      51     253      23      45     198    NA
    ##  8 1947  August    dem          23      51     253      23      45     198    NA
    ##  9 1947  September dem          23      51     253      23      45     198    NA
    ## 10 1947  October   dem          23      51     253      23      45     198    NA
    ## # … with 812 more rows, 1 more variable: unemp_perc <dbl>, and abbreviated
    ## #   variable name ¹​president
…
